<svg width="28px" height="28px" viewBox="0 0 28 28" version="1.1" xmlns="http://www.w3.org/2000/svg" xmlns:xlink="http://www.w3.org/1999/xlink">
    <g id="Page-1" stroke="none" stroke-width="1" fill="none" fill-rule="evenodd">
        <g id="Product---Prosecco" transform="translate(-1339.000000, -1014.000000)" fill-rule="nonzero" fill="#272726">
            <g id="facebook-messenger" transform="translate(1339.000000, 1014.000000)">
                <path d="M14,0 C6.268,0 0,5.80369136 0,12.962963 C0,17.0424074 2.03582609,20.6811975 5.2173913,23.0573951 L5.2173913,28 L9.98426087,25.3838148 C11.2564348,25.7358889 12.6041739,25.9259259 14,25.9259259 C21.732,25.9259259 28,20.1222346 28,12.962963 C28,5.80369136 21.732,0 14,0 Z M15.3913043,17.4567901 L11.826087,13.654321 L4.86956522,17.4567901 L12.5217391,9.33333333 L16.173913,13.1358025 L23.0434783,9.33333333 L15.3913043,17.4567901 Z" id="Shape"></path>
            </g>
        </g>
    </g>
</svg>