<svg version="1.1" id="Layer_1" xmlns="http://www.w3.org/2000/svg" xmlns:xlink="http://www.w3.org/1999/xlink" x="0px" y="0px"
	 viewBox="0 0 32 32" style="enable-background:new 0 0 32 32;" xml:space="preserve">
<g>
	<path d="M28.8,1.6h-25c-1.1,0-1.9,0.9-1.9,1.9v25c0,1.1,0.9,1.9,1.9,1.9h25c1.1,0,1.9-0.9,1.9-1.9v-25
		C30.8,2.5,29.9,1.6,28.8,1.6z M10.5,26.5H6.2v-14h4.3V26.5z M8.3,10.7c-1.4,0-2.5-1.1-2.5-2.5c0-1.4,1.1-2.5,2.5-2.5
		c1.4,0,2.5,1.1,2.5,2.5C10.9,9.5,9.7,10.7,8.3,10.7z M26.8,26.5h-4.3v-6.8c0-1.6,0-3.7-2.3-3.7c-2.3,0-2.6,1.8-2.6,3.6v6.9h-4.3
		v-14h4.2v1.9h0.1c0.6-1.1,2-2.3,4.1-2.3c4.4,0,5.2,2.9,5.2,6.6V26.5z"/>
</g>
</svg>
