<svg version="1.1" xmlns="http://www.w3.org/2000/svg" xmlns:xlink="http://www.w3.org/1999/xlink" x="0px" y="0px"
	 viewBox="0 0 32 32" style="enable-background:new 0 0 32 32;" xml:space="preserve">
<g>
	<polygon style="fill:none;" points="26.4,7.8 5.6,7.8 16,15.6 		"/>
	<path style="fill:none;" d="M17.4,18.3c-0.4,0.3-0.9,0.4-1.4,0.4s-0.9-0.1-1.4-0.4l-0.1-0.1L3.5,10v14.5h25V10L17.4,18.3z"/>
	<path d="M29.6,4.8H2.4c-1,0-1.9,0.8-1.9,1.9v19c0,1,0.8,1.9,1.9,1.9h27.3c1,0,1.9-0.8,1.9-1.9v-19
		C31.5,5.6,30.7,4.8,29.6,4.8z M26.4,7.8L16,15.6L5.6,7.8H26.4z M3.5,24.5V10l11,8.3l0.1,0.1c0.4,0.3,0.9,0.4,1.4,0.4
		s0.9-0.1,1.4-0.4L28.5,10v14.5H3.5z"/>
</g>
</svg>
