<?xml version="1.0" encoding="utf-8"?>
<!-- Generator: Adobe Illustrator 22.0.1, SVG Export Plug-In . SVG Version: 6.00 Build 0)  -->
<svg version="1.1" id="Layer_1" xmlns="http://www.w3.org/2000/svg" xmlns:xlink="http://www.w3.org/1999/xlink" x="0px" y="0px"
	 viewBox="0 0 32 32" style="enable-background:new 0 0 32 32;" xml:space="preserve">
<path style="fill:#DF5EAB;" d="M6.4,24h4.8l3.2-6.4V8H4.8v9.6h4.8L6.4,24z M19.2,24H24l3.2-6.4V8h-9.6v9.6h4.8L19.2,24z"/>
</svg>
