<svg width="28px" height="35px" viewBox="0 0 28 35" version="1.1" xmlns="http://www.w3.org/2000/svg" xmlns:xlink="http://www.w3.org/1999/xlink">
    <g id="Page-1" stroke="none" stroke-width="1" fill="none" fill-rule="evenodd">
        <g id="Product---Prosecco" transform="translate(-1696.000000, -24.000000)" stroke-width="2" stroke="#272726"> <!--#B48A74-->
            <g id="shopping-bag" transform="translate(1697.000000, 24.000000)">
                <polygon id="Stroke-1" points="0.27921875 33.9166472 25.4432813 33.9166472 25.4432813 12.8408785 0.27921875 12.8408785"></polygon>
                <path d="M3.83522031,12.8408785 L3.83522031,7.87823753 C3.83522031,4.06984613 6.93530977,0.98294854 10.7599763,0.98294854 C14.5846429,0.98294854 17.6854379,4.06984613 17.6854379,7.87823753 L17.6854379,12.8408785" id="Stroke-3"></path>
                <path d="M7.50650513,12.8408785 L7.50650513,7.87823753 C7.50650513,4.06984613 10.6065946,0.98294854 14.4312612,0.98294854 C18.2559277,0.98294854 21.3567227,4.06984613 21.3567227,7.87823753 L21.3567227,12.8408785" id="Stroke-4"></path>
            </g>
        </g>
    </g>
</svg>